Ausarbeitung/Messungen/Nach_Tiefpass.csv

X,CH1,Start,Increment,
Sequence,Volt,-2.740000e-03,5.000000e-06
0,1.48e+00,
1,1.36e+00,
2,1.44e+00,
3,1.28e+00,
4,1.36e+00,
5,1.20e+00,
6,1.28e+00,
7,1.08e+00,
8,1.16e+00,
9,1.00e+00,
10,1.08e+00,
11,9.20e-01,
12,1.00e+00,
13,8.00e-01,
14,8.80e-01,
15,6.80e-01,
16,7.60e-01,
17,5.60e-01,
18,6.00e-01,
19,4.00e-01,
20,4.40e-01,
21,2.40e-01,
22,3.20e-01,
23,8.00e-02,
24,1.60e-01,
25,-8.00e-02,
26,0.00e+00,
27,-2.40e-01,
28,-1.60e-01,
29,-4.00e-01,
30,-3.60e-01,
31,-6.00e-01,
32,-4.80e-01,
33,-6.80e-01,
34,-5.60e-01,
35,-8.00e-01,
36,-6.80e-01,
37,-9.20e-01,
38,-8.40e-01,
39,-1.08e+00,
40,-9.60e-01,
41,-1.16e+00,
42,-1.04e+00,
43,-1.28e+00,
44,-1.16e+00,
45,-1.36e+00,
46,-1.24e+00,
47,-1.40e+00,
48,-1.28e+00,
49,-1.44e+00,
50,-1.32e+00,
51,-1.48e+00,
52,-1.48e+00,
53,-1.36e+00,
54,-1.36e+00,
55,-1.52e+00,
56,-1.36e+00,
57,-1.48e+00,
58,-1.48e+00,
59,-1.32e+00,
60,-1.44e+00,
61,-1.24e+00,
62,-1.36e+00,
63,-1.16e+00,
64,-1.28e+00,
65,-1.04e+00,
66,-1.16e+00,
67,-9.60e-01,
68,-1.08e+00,
69,-8.80e-01,
70,-1.00e+00,
71,-7.60e-01,
72,-8.80e-01,
73,-6.40e-01,
74,-7.60e-01,
75,-4.80e-01,
76,-6.00e-01,
77,-3.60e-01,
78,-4.00e-01,
79,-1.60e-01,
80,-2.80e-01,
81,-4.00e-02,
82,-1.20e-01,
83,1.20e-01,
84,0.00e+00,
85,2.80e-01,
86,1.60e-01,
87,4.40e-01,
88,3.60e-01,
89,6.00e-01,
90,5.20e-01,
91,7.60e-01,
92,6.80e-01,
93,8.00e-01,
94,7.20e-01,
95,9.20e-01,
96,8.40e-01,
97,1.08e+00,
98,1.00e+00,
99,1.16e+00,
100,1.08e+00,
101,1.32e+00,
102,1.24e+00,
103,1.40e+00,
104,1.40e+00,
105,1.32e+00,
106,1.32e+00,
107,1.44e+00,
108,1.36e+00,
109,1.48e+00,
110,1.40e+00,
111,1.52e+00,
112,1.52e+00,
113,1.44e+00,
114,1.52e+00,
115,1.40e+00,
116,1.48e+00,
117,1.36e+00,
118,1.44e+00,
119,1.32e+00,
120,1.40e+00,
121,1.24e+00,
122,1.32e+00,
123,1.16e+00,
124,1.24e+00,
125,1.00e+00,
126,1.08e+00,
127,9.20e-01,
128,1.00e+00,
129,8.40e-01,
130,9.20e-01,
131,7.20e-01,
132,8.00e-01,
133,5.60e-01,
134,6.40e-01,
135,4.00e-01,
136,4.80e-01,
137,2.40e-01,
138,3.20e-01,
139,4.00e-02,
140,1.60e-01,
141,-4.00e-02,
142,4.00e-02,
143,-2.00e-01,
144,-1.20e-01,
145,-3.60e-01,
146,-3.20e-01,
147,-5.60e-01,
148,-4.80e-01,
149,-7.20e-01,
150,-6.00e-01,
151,-8.00e-01,
152,-6.80e-01,
153,-9.20e-01,
154,-8.00e-01,
155,-1.04e+00,
156,-9.60e-01,
157,-1.12e+00,
158,-1.04e+00,
159,-1.24e+00,
160,-1.16e+00,
161,-1.36e+00,
162,-1.24e+00,
163,-1.40e+00,
164,-1.32e+00,
165,-1.44e+00,
166,-1.32e+00,
167,-1.48e+00,
168,-1.36e+00,
169,-1.52e+00,
170,-1.52e+00,
171,-1.48e+00,
172,-1.52e+00,
173,-1.40e+00,
174,-1.48e+00,
175,-1.32e+00,
176,-1.44e+00,
177,-1.28e+00,
178,-1.40e+00,
179,-1.20e+00,
180,-1.32e+00,
181,-1.12e+00,
182,-1.20e+00,
183,-1.00e+00,
184,-1.12e+00,
185,-8.80e-01,
186,-1.00e+00,
187,-8.00e-01,
188,-9.20e-01,
189,-6.80e-01,
190,-8.00e-01,
191,-5.60e-01,
192,-6.40e-01,
193,-4.00e-01,
194,-4.80e-01,
195,-2.00e-01,
196,-2.80e-01,
197,0.00e+00,
198,-1.20e-01,
199,8.00e-02,
200,0.00e+00,
201,2.00e-01,
202,1.20e-01,
203,3.60e-01,
204,3.20e-01,
205,5.60e-01,
206,4.80e-01,
207,7.20e-01,
208,6.40e-01,
209,8.40e-01,
210,7.60e-01,
211,9.20e-01,
212,8.40e-01,
213,1.04e+00,
214,9.60e-01,
215,1.16e+00,
216,1.08e+00,
217,1.24e+00,
218,1.20e+00,
219,1.40e+00,
220,1.32e+00,
221,1.44e+00,
222,1.36e+00,
223,1.48e+00,
224,1.40e+00,
225,1.48e+00,
226,1.40e+00,
227,1.52e+00,
228,1.44e+00,
229,1.52e+00,
230,1.52e+00,
231,1.44e+00,
232,1.52e+00,
233,1.40e+00,
234,1.48e+00,
235,1.32e+00,
236,1.40e+00,
237,1.28e+00,
238,1.36e+00,
239,1.20e+00,
240,1.28e+00,
241,1.08e+00,
242,1.16e+00,
243,9.60e-01,
244,1.04e+00,
245,8.40e-01,
246,9.20e-01,
247,7.60e-01,
248,8.40e-01,
249,6.00e-01,
250,6.80e-01,
251,4.80e-01,
252,5.60e-01,
253,2.80e-01,
254,3.60e-01,
255,8.00e-02,
256,1.60e-01,
257,-8.00e-02,
258,0.00e+00,
259,-1.60e-01,
260,-8.00e-02,
261,-3.20e-01,
262,-2.40e-01,
263,-5.20e-01,
264,-4.00e-01,
265,-6.40e-01,
266,-5.60e-01,
267,-8.00e-01,
268,-6.80e-01,
269,-9.20e-01,
270,-8.40e-01,
271,-1.00e+00,
272,-8.80e-01,
273,-1.12e+00,
274,-1.00e+00,
275,-1.20e+00,
276,-1.12e+00,
277,-1.36e+00,
278,-1.24e+00,
279,-1.44e+00,
280,-1.32e+00,
281,-1.48e+00,
282,-1.48e+00,
283,-1.36e+00,
284,-1.36e+00,
285,-1.52e+00,
286,-1.52e+00,
287,-1.40e+00,
288,-1.52e+00,
289,-1.40e+00,
290,-1.52e+00,
291,-1.36e+00,
292,-1.48e+00,
293,-1.28e+00,
294,-1.40e+00,
295,-1.24e+00,
296,-1.36e+00,
297,-1.12e+00,
298,-1.24e+00,
299,-1.04e+00,
300,-1.16e+00,
301,-9.20e-01,
302,-1.04e+00,
303,-8.00e-01,
304,-9.20e-01,
305,-6.80e-01,
306,-8.00e-01,
307,-6.00e-01,
308,-6.80e-01,
309,-4.40e-01,
310,-5.60e-01,
311,-2.40e-01,
312,-3.60e-01,
313,-1.20e-01,
314,-2.00e-01,
315,8.00e-02,
316,-4.00e-02,
317,2.00e-01,
318,1.20e-01,
319,3.20e-01,
320,2.40e-01,
321,4.80e-01,
322,4.00e-01,
323,6.40e-01,
324,5.60e-01,
325,8.00e-01,
326,7.20e-01,
327,9.20e-01,
328,8.40e-01,
329,1.04e+00,
330,9.20e-01,
331,1.08e+00,
332,1.00e+00,
333,1.20e+00,
334,1.12e+00,
335,1.32e+00,
336,1.24e+00,
337,1.40e+00,
338,1.32e+00,
339,1.48e+00,
340,1.48e+00,
341,1.36e+00,
342,1.48e+00,
343,1.40e+00,
344,1.40e+00,
345,1.52e+00,
346,1.40e+00,
347,1.52e+00,
348,1.40e+00,
349,1.48e+00,
350,1.48e+00,
351,1.32e+00,
352,1.40e+00,
353,1.28e+00,
354,1.36e+00,
355,1.20e+00,
356,1.28e+00,
357,1.12e+00,
358,1.16e+00,
359,1.00e+00,
360,1.08e+00,
361,8.80e-01,
362,9.60e-01,
363,7.60e-01,
364,8.40e-01,
365,6.40e-01,
366,7.20e-01,
367,5.20e-01,
368,6.00e-01,
369,3.60e-01,
370,4.40e-01,
371,1.20e-01,
372,2.40e-01,
373,-4.00e-02,
374,4.00e-02,
375,-2.00e-01,
376,-1.20e-01,
377,-2.80e-01,
378,-2.00e-01,
379,-4.00e-01,
380,-3.20e-01,
381,-6.00e-01,
382,-4.80e-01,
383,-7.60e-01,
384,-6.40e-01,
385,-8.80e-01,
386,-7.60e-01,
387,-1.04e+00,
388,-9.20e-01,
389,-1.08e+00,
390,-9.60e-01,
391,-1.16e+00,
392,-1.04e+00,
393,-1.28e+00,
394,-1.20e+00,
395,-1.36e+00,
396,-1.28e+00,
397,-1.44e+00,
398,-1.32e+00,
399,-1.48e+00,
400,-1.48e+00,
401,-1.36e+00,
402,-1.48e+00,
403,-1.36e+00,
404,-1.48e+00,
405,-1.36e+00,
406,-1.48e+00,
407,-1.32e+00,
408,-1.44e+00,
409,-1.28e+00,
410,-1.40e+00,
411,-1.20e+00,
412,-1.32e+00,
413,-1.12e+00,
414,-1.28e+00,
415,-1.04e+00,
416,-1.16e+00,
417,-9.60e-01,
418,-1.04e+00,
419,-8.40e-01,
420,-9.20e-01,
421,-7.20e-01,
422,-8.00e-01,
423,-5.60e-01,
424,-6.80e-01,
425,-4.80e-01,
426,-5.60e-01,
427,-2.80e-01,
428,-3.60e-01,
429,-1.20e-01,
430,-2.00e-01,
431,4.00e-02,
432,-4.00e-02,
433,2.40e-01,
434,1.60e-01,
435,3.60e-01,
436,3.20e-01,
437,4.40e-01,
438,4.00e-01,
439,6.00e-01,
440,5.20e-01,
441,7.60e-01,
442,6.80e-01,
443,8.80e-01,
444,8.00e-01,
445,1.04e+00,
446,9.60e-01,
447,1.12e+00,
448,1.04e+00,
449,1.16e+00,
450,1.12e+00,
451,1.32e+00,
452,1.24e+00,
453,1.40e+00,
454,1.32e+00,
455,1.44e+00,
456,1.36e+00,
457,1.48e+00,
458,1.40e+00,
459,1.52e+00,
460,1.52e+00,
461,1.40e+00,
462,1.40e+00,
463,1.48e+00,
464,1.40e+00,
465,1.48e+00,
466,1.48e+00,
467,1.36e+00,
468,1.44e+00,
469,1.28e+00,
470,1.36e+00,
471,1.20e+00,
472,1.28e+00,
473,1.12e+00,
474,1.20e+00,
475,1.00e+00,
476,1.08e+00,
477,9.20e-01,
478,1.00e+00,
479,7.60e-01,
480,8.80e-01,
481,6.40e-01,
482,7.20e-01,
483,5.20e-01,
484,6.00e-01,
485,4.00e-01,
486,4.40e-01,
487,2.00e-01,
488,2.80e-01,
489,0.00e+00,
490,1.20e-01,
491,-1.60e-01,
492,-8.00e-02,
493,-3.20e-01,
494,-2.40e-01,
495,-4.80e-01,
496,-3.20e-01,
497,-5.60e-01,
498,-4.80e-01,
499,-6.80e-01,
500,-6.00e-01,
501,-8.40e-01,
502,-7.20e-01,
503,-1.00e+00,
504,-8.80e-01,
505,-1.12e+00,
506,-1.00e+00,
507,-1.16e+00,
508,-1.04e+00,
509,-1.24e+00,
510,-1.16e+00,
511,-1.36e+00,
512,-1.24e+00,
513,-1.44e+00,
514,-1.32e+00,
515,-1.48e+00,
516,-1.48e+00,
517,-1.36e+00,
518,-1.36e+00,
519,-1.52e+00,
520,-1.36e+00,
521,-1.48e+00,
522,-1.48e+00,
523,-1.32e+00,
524,-1.44e+00,
525,-1.28e+00,
526,-1.40e+00,
527,-1.20e+00,
528,-1.32e+00,
529,-1.12e+00,
530,-1.20e+00,
531,-1.04e+00,
532,-1.16e+00,
533,-9.60e-01,
534,-1.08e+00,
535,-8.40e-01,
536,-9.60e-01,
537,-7.20e-01,
538,-8.40e-01,
539,-6.00e-01,
540,-6.80e-01,
541,-4.80e-01,
542,-5.60e-01,
543,-3.20e-01,
544,-4.00e-01,
545,-1.60e-01,
546,-2.40e-01,
547,0.00e+00,
548,-8.00e-02,
549,2.00e-01,
550,8.00e-02,
551,3.60e-01,
552,2.80e-01,
553,5.60e-01,
554,4.40e-01,
555,6.00e-01,
556,5.20e-01,
557,7.20e-01,
558,6.40e-01,
559,8.80e-01,
560,7.60e-01,
561,1.00e+00,
562,9.20e-01,
563,1.12e+00,
564,1.04e+00,
565,1.20e+00,
566,1.12e+00,
567,1.32e+00,
568,1.24e+00,
569,1.36e+00,
570,1.32e+00,
571,1.44e+00,
572,1.36e+00,
573,1.48e+00,
574,1.40e+00,
575,1.52e+00,
576,1.44e+00,
577,1.56e+00,
578,1.56e+00,
579,1.44e+00,
580,1.52e+00,
581,1.40e+00,
582,1.48e+00,
583,1.36e+00,
584,1.44e+00,
585,1.32e+00,
586,1.40e+00,
587,1.24e+00,
588,1.32e+00,
589,1.12e+00,
590,1.16e+00,
591,1.04e+00,
592,1.12e+00,
593,9.20e-01,
594,1.00e+00,
595,8.00e-01,
596,8.80e-01,
597,6.80e-01,
598,7.60e-01,
599,5.60e-01,
600,6.40e-01,
601,4.00e-01,
602,4.40e-01,
603,2.40e-01,
604,3.20e-01,
605,8.00e-02,
606,1.60e-01,
607,-8.00e-02,
608,0.00e+00,
609,-2.40e-01,
610,-1.60e-01,
611,-4.00e-01,
612,-3.60e-01,
613,-6.00e-01,
614,-5.20e-01,
615,-6.80e-01,
616,-5.60e-01,
617,-8.00e-01,
618,-7.20e-01,
619,-9.60e-01,
620,-8.40e-01,
621,-1.04e+00,
622,-9.60e-01,
623,-1.16e+00,
624,-1.08e+00,
625,-1.32e+00,
626,-1.20e+00,
627,-1.36e+00,
628,-1.24e+00,
629,-1.40e+00,
630,-1.32e+00,
631,-1.48e+00,
632,-1.48e+00,
633,-1.36e+00,
634,-1.40e+00,
635,-1.52e+00,
636,-1.52e+00,
637,-1.48e+00,
638,-1.52e+00,
639,-1.36e+00,
640,-1.48e+00,
641,-1.32e+00,
642,-1.44e+00,
643,-1.24e+00,
644,-1.36e+00,
645,-1.20e+00,
646,-1.28e+00,
647,-1.04e+00,
648,-1.16e+00,
649,-9.60e-01,
650,-1.08e+00,
651,-8.80e-01,
652,-1.00e+00,
653,-7.60e-01,
654,-8.80e-01,
655,-6.40e-01,
656,-7.60e-01,
657,-5.20e-01,
658,-6.00e-01,
659,-3.60e-01,
660,-4.00e-01,
661,-2.00e-01,
662,-2.80e-01,
663,-4.00e-02,
664,-1.60e-01,
665,8.00e-02,
666,0.00e+00,
667,2.80e-01,
668,1.60e-01,
669,4.00e-01,
670,3.20e-01,
671,6.00e-01,
672,5.20e-01,
673,7.20e-01,
674,6.40e-01,
675,8.00e-01,
676,7.20e-01,
677,9.20e-01,
678,8.40e-01,
679,1.08e+00,
680,9.60e-01,
681,1.16e+00,
682,1.08e+00,
683,1.28e+00,
684,1.24e+00,
685,1.36e+00,
686,1.28e+00,
687,1.40e+00,
688,1.32e+00,
689,1.48e+00,
690,1.40e+00,
691,1.52e+00,
692,1.52e+00,
693,1.44e+00,
694,1.52e+00,
695,1.44e+00,
696,1.52e+00,
697,1.40e+00,
698,1.48e+00,
699,1.36e+00,
700,1.48e+00,
701,1.32e+00,
702,1.40e+00,
703,1.24e+00,
704,1.32e+00,
705,1.16e+00,
706,1.20e+00,
707,1.04e+00,
708,1.12e+00,
709,9.60e-01,
710,1.04e+00,
711,8.40e-01,
712,9.20e-01,
713,7.20e-01,
714,8.00e-01,
715,6.00e-01,
716,6.80e-01,
717,4.40e-01,
718,5.20e-01,
719,2.40e-01,
720,3.20e-01,
721,1.20e-01,
722,2.00e-01,
723,-4.00e-02,
724,8.00e-02,
725,-2.00e-01,
726,-8.00e-02,
727,-3.60e-01,
728,-2.40e-01,
729,-5.60e-01,
730,-4.40e-01,
731,-6.80e-01,
732,-5.60e-01,
733,-7.60e-01,
734,-6.80e-01,
735,-8.80e-01,
736,-7.60e-01,
737,-1.04e+00,
738,-9.20e-01,
739,-1.12e+00,
740,-1.00e+00,
741,-1.24e+00,
742,-1.16e+00,
743,-1.36e+00,
744,-1.24e+00,
745,-1.40e+00,
746,-1.28e+00,
747,-1.44e+00,
748,-1.32e+00,
749,-1.48e+00,
750,-1.48e+00,
751,-1.36e+00,
752,-1.52e+00,
753,-1.40e+00,
754,-1.52e+00,
755,-1.36e+00,
756,-1.48e+00,
757,-1.32e+00,
758,-1.44e+00,
759,-1.28e+00,
760,-1.40e+00,
761,-1.20e+00,
762,-1.32e+00,
763,-1.08e+00,
764,-1.20e+00,
765,-1.00e+00,
766,-1.12e+00,
767,-8.80e-01,
768,-1.00e+00,
769,-8.00e-01,
770,-9.20e-01,
771,-6.80e-01,
772,-8.00e-01,
773,-5.60e-01,
774,-6.40e-01,
775,-4.00e-01,
776,-5.20e-01,
777,-2.40e-01,
778,-3.20e-01,
779,-4.00e-02,
780,-1.60e-01,
781,8.00e-02,
782,-4.00e-02,
783,2.00e-01,
784,1.20e-01,
785,3.60e-01,
786,2.80e-01,
787,5.60e-01,
788,4.80e-01,
789,6.80e-01,
790,6.00e-01,
791,8.40e-01,
792,7.60e-01,
793,9.20e-01,
794,8.00e-01,
795,1.00e+00,
796,9.20e-01,
797,1.12e+00,
798,1.04e+00,
799,1.28e+00,
800,1.20e+00,
801,1.36e+00,
802,1.28e+00,
803,1.44e+00,
804,1.44e+00,
805,1.32e+00,
806,1.36e+00,
807,1.48e+00,
808,1.40e+00,
809,1.52e+00,
810,1.52e+00,
811,1.40e+00,
812,1.52e+00,
813,1.40e+00,
814,1.40e+00,
815,1.48e+00,
816,1.48e+00,
817,1.32e+00,
818,1.40e+00,
819,1.28e+00,
820,1.36e+00,
821,1.20e+00,
822,1.24e+00,
823,1.08e+00,
824,1.16e+00,
825,9.60e-01,
826,1.04e+00,
827,8.40e-01,
828,9.20e-01,
829,7.60e-01,
830,8.40e-01,
831,6.00e-01,
832,7.20e-01,
833,4.80e-01,
834,5.60e-01,
835,2.80e-01,
836,3.60e-01,
837,1.20e-01,
838,2.00e-01,
839,-4.00e-02,
840,4.00e-02,
841,-1.60e-01,
842,-4.00e-02,
843,-2.80e-01,
844,-2.00e-01,
845,-4.80e-01,
846,-4.00e-01,
847,-6.40e-01,
848,-5.60e-01,
849,-8.00e-01,
850,-6.80e-01,
851,-8.80e-01,
852,-7.60e-01,
853,-1.00e+00,
854,-8.80e-01,
855,-1.08e+00,
856,-9.60e-01,
857,-1.20e+00,
858,-1.12e+00,
859,-1.32e+00,
860,-1.20e+00,
861,-1.40e+00,
862,-1.28e+00,
863,-1.44e+00,
864,-1.44e+00,
865,-1.32e+00,
866,-1.32e+00,
867,-1.48e+00,
868,-1.48e+00,
869,-1.36e+00,
870,-1.48e+00,
871,-1.36e+00,
872,-1.48e+00,
873,-1.32e+00,
874,-1.44e+00,
875,-1.28e+00,
876,-1.40e+00,
877,-1.24e+00,
878,-1.32e+00,
879,-1.16e+00,
880,-1.20e+00,
881,-1.00e+00,
882,-1.12e+00,
883,-9.20e-01,
884,-1.00e+00,
885,-8.00e-01,
886,-9.20e-01,
887,-6.80e-01,
888,-8.00e-01,
889,-5.60e-01,
890,-6.80e-01,
891,-4.40e-01,
892,-5.20e-01,
893,-2.40e-01,
894,-3.60e-01,
895,-8.00e-02,
896,-2.00e-01,
897,8.00e-02,
898,0.00e+00,
899,2.00e-01,
900,1.20e-01,
901,3.20e-01,
902,2.40e-01,
903,4.80e-01,
904,4.40e-01,
905,6.40e-01,
906,5.60e-01,
907,8.00e-01,
908,7.20e-01,
909,9.20e-01,
910,8.40e-01,
911,1.00e+00,
912,9.20e-01,
913,1.12e+00,
914,1.00e+00,
915,1.24e+00,
916,1.12e+00,
917,1.36e+00,
918,1.24e+00,
919,1.40e+00,
920,1.32e+00,
921,1.48e+00,
922,1.40e+00,
923,1.48e+00,
924,1.48e+00,
925,1.40e+00,
926,1.40e+00,
927,1.52e+00,
928,1.40e+00,
929,1.52e+00,
930,1.40e+00,
931,1.48e+00,
932,1.48e+00,
933,1.32e+00,
934,1.40e+00,
935,1.28e+00,
936,1.36e+00,
937,1.20e+00,
938,1.28e+00,
939,1.08e+00,
940,1.16e+00,
941,1.00e+00,
942,1.08e+00,
943,8.80e-01,
944,9.60e-01,
945,7.60e-01,
946,8.40e-01,
947,6.40e-01,
948,7.20e-01,
949,5.20e-01,
950,5.60e-01,
951,3.60e-01,
952,4.00e-01,
953,1.20e-01,
954,2.00e-01,
955,-4.00e-02,
956,4.00e-02,
957,-2.00e-01,
958,-1.20e-01,
959,-2.80e-01,
960,-2.00e-01,
961,-4.00e-01,
962,-3.60e-01,
963,-6.00e-01,
964,-5.20e-01,
965,-7.60e-01,
966,-6.40e-01,
967,-8.80e-01,
968,-8.00e-01,
969,-1.04e+00,
970,-9.20e-01,
971,-1.08e+00,
972,-9.60e-01,
973,-1.20e+00,
974,-1.08e+00,
975,-1.32e+00,
976,-1.20e+00,
977,-1.40e+00,
978,-1.28e+00,
979,-1.44e+00,
980,-1.32e+00,
981,-1.52e+00,
982,-1.52e+00,
983,-1.36e+00,
984,-1.36e+00,
985,-1.52e+00,
986,-1.36e+00,
987,-1.52e+00,
988,-1.36e+00,
989,-1.48e+00,
990,-1.48e+00,
991,-1.28e+00,
992,-1.40e+00,
993,-1.20e+00,
994,-1.16e+00,
995,-1.32e+00,
996,-1.28e+00,
997,-1.04e+00,
998,-1.16e+00,
999,-9.60e-01,
1000,-1.04e+00,
1001,-8.40e-01,
1002,-9.20e-01,
1003,-7.20e-01,
1004,-8.00e-01,
1005,-5.60e-01,
1006,-6.80e-01,
1007,-4.40e-01,
1008,-5.60e-01,
1009,-2.80e-01,
1010,-3.60e-01,
1011,-1.20e-01,
1012,-2.00e-01,
1013,8.00e-02,
1014,-4.00e-02,
1015,2.40e-01,
1016,1.60e-01,
1017,3.60e-01,
1018,2.80e-01,
1019,4.80e-01,
1020,4.00e-01,
1021,6.40e-01,
1022,5.60e-01,
1023,7.60e-01,
1024,6.80e-01,
1025,9.20e-01,
1026,8.40e-01,
1027,1.04e+00,
1028,9.60e-01,
1029,1.12e+00,
1030,1.04e+00,
1031,1.20e+00,
1032,1.16e+00,
1033,1.32e+00,
1034,1.24e+00,
1035,1.40e+00,
1036,1.32e+00,
1037,1.48e+00,
1038,1.40e+00,
1039,1.52e+00,
1040,1.52e+00,
1041,1.44e+00,
1042,1.44e+00,
1043,1.52e+00,
1044,1.44e+00,
1045,1.52e+00,
1046,1.40e+00,
1047,1.52e+00,
1048,1.48e+00,
1049,1.36e+00,
1050,1.44e+00,
1051,1.28e+00,
1052,1.36e+00,
1053,1.24e+00,
1054,1.32e+00,
1055,1.16e+00,
1056,1.20e+00,
1057,1.04e+00,
1058,1.12e+00,
1059,9.20e-01,
1060,1.00e+00,
1061,8.00e-01,
1062,8.80e-01,
1063,6.80e-01,
1064,7.20e-01,
1065,5.60e-01,
1066,6.40e-01,
1067,4.00e-01,
1068,4.80e-01,
1069,2.00e-01,
1070,2.80e-01,
1071,0.00e+00,
1072,8.00e-02,
1073,-1.60e-01,
1074,-4.00e-02,
1075,-3.20e-01,
1076,-2.40e-01,
1077,-4.00e-01,
1078,-2.80e-01,
1079,-5.60e-01,
1080,-4.40e-01,
1081,-7.20e-01,
1082,-6.00e-01,
1083,-8.40e-01,
1084,-7.20e-01,
1085,-1.00e+00,
1086,-8.80e-01,
1087,-1.12e+00,
1088,-9.60e-01,
1089,-1.16e+00,
1090,-1.04e+00,
1091,-1.24e+00,
1092,-1.12e+00,
1093,-1.36e+00,
1094,-1.24e+00,
1095,-1.44e+00,
1096,-1.32e+00,
1097,-1.48e+00,
1098,-1.36e+00,
1099,-1.52e+00,
1100,-1.52e+00,
1101,-1.36e+00,
1102,-1.36e+00,
1103,-1.52e+00,
1104,-1.36e+00,
1105,-1.48e+00,
1106,-1.48e+00,
1107,-1.32e+00,
1108,-1.44e+00,
1109,-1.24e+00,
1110,-1.36e+00,
1111,-1.12e+00,
1112,-1.24e+00,
1113,-1.08e+00,
1114,-1.20e+00,
1115,-9.60e-01,
1116,-1.08e+00,
1117,-8.80e-01,
1118,-1.00e+00,
1119,-7.60e-01,
1120,-8.40e-01,
1121,-6.40e-01,
1122,-7.20e-01,
1123,-4.80e-01,
1124,-5.60e-01,
1125,-3.60e-01,
1126,-4.40e-01,
1127,-2.00e-01,
1128,-2.80e-01,
1129,0.00e+00,
1130,-8.00e-02,
1131,1.60e-01,
1132,8.00e-02,
1133,3.20e-01,
1134,2.40e-01,
1135,5.20e-01,
1136,4.40e-01,
1137,6.00e-01,
1138,4.80e-01,
1139,7.20e-01,
1140,6.40e-01,
1141,8.40e-01,
1142,7.60e-01,
1143,1.00e+00,
1144,9.20e-01,
1145,1.12e+00,
1146,1.04e+00,
1147,1.24e+00,
1148,1.12e+00,
1149,1.28e+00,
1150,1.20e+00,
1151,1.36e+00,
1152,1.28e+00,
1153,1.44e+00,
1154,1.36e+00,
1155,1.48e+00,
1156,1.40e+00,
1157,1.52e+00,
1158,1.52e+00,
1159,1.44e+00,
1160,1.44e+00,
1161,1.52e+00,
1162,1.52e+00,
1163,1.40e+00,
1164,1.40e+00,
1165,1.48e+00,
1166,1.44e+00,
1167,1.32e+00,
1168,1.40e+00,
1169,1.24e+00,
1170,1.32e+00,
1171,1.12e+00,
1172,1.20e+00,
1173,1.04e+00,
1174,1.12e+00,
1175,9.60e-01,
1176,1.04e+00,
1177,8.40e-01,
1178,9.20e-01,
1179,6.80e-01,
1180,8.00e-01,
1181,5.60e-01,
1182,6.40e-01,
1183,4.00e-01,
1184,4.80e-01,
1185,2.40e-01,
1186,3.60e-01,
1187,1.20e-01,
1188,2.00e-01,
1189,-8.00e-02,
1190,0.00e+00,
1191,-2.40e-01,
1192,-1.60e-01,
1193,-4.00e-01,
1194,-3.20e-01,
1195,-5.60e-01,
1196,-4.40e-01,
1197,-6.40e-01,
1198,-5.60e-01,
1199,-8.00e-01,
