Ausarbeitung/Messungen/NewFile5.csv

X,CH1,Start,Increment,
Sequence,Volt,-1.196000e-03,2.000000e-06
0,8.00e+00,
1,-2.80e+01,
2,-2.40e+01,
3,-3.00e+01,
4,-3.00e+01,
5,-2.40e+01,
6,-2.40e+01,
7,-2.80e+01,
8,-2.80e+01,
9,-2.00e+01,
10,-2.00e+01,
11,-2.60e+01,
12,-1.80e+01,
13,-2.20e+01,
14,-2.20e+01,
15,-1.60e+01,
16,-2.00e+01,
17,-1.20e+01,
18,-1.20e+01,
19,-3.80e+01,
20,-3.40e+01,
21,6.20e+01,
22,8.00e+00,
23,3.20e+01,
24,2.00e+01,
25,1.60e+01,
26,2.00e+01,
27,-8.00e+00,
28,-4.00e+00,
29,-8.00e+00,
30,-8.00e+00,
31,-4.00e+00,
32,-8.00e+00,
33,-4.00e+00,
34,-4.00e+00,
35,-8.00e+00,
36,-6.00e+00,
37,-2.00e+00,
38,-6.00e+00,
39,-2.00e+00,
40,-4.00e+00,
41,1.20e+01,
42,8.00e+00,
43,1.40e+01,
44,1.40e+01,
45,1.00e+01,
46,1.20e+01,
47,1.80e+01,
48,1.60e+01,
49,4.40e+01,
50,3.60e+01,
51,4.20e+01,
52,3.80e+01,
53,4.40e+01,
54,4.40e+01,
55,4.00e+01,
56,4.80e+01,
57,-8.00e+00,
58,-2.00e+00,
59,-6.00e+00,
60,-6.00e+00,
61,2.60e+01,
62,2.00e+01,
63,3.00e+01,
64,3.00e+01,
65,3.40e+01,
66,3.20e+01,
67,3.60e+01,
68,3.40e+01,
69,3.80e+01,
70,3.60e+01,
71,4.20e+01,
72,3.80e+01,
73,4.40e+01,
74,4.40e+01,
75,4.00e+01,
76,4.20e+01,
77,4.80e+01,
78,4.20e+01,
79,7.60e+01,
80,6.60e+01,
81,7.40e+01,
82,7.00e+01,
83,7.40e+01,
84,7.20e+01,
85,7.60e+01,
86,8.00e+01,
87,-6.00e+00,
88,1.00e+01,
89,1.40e+01,
90,1.20e+01,
91,5.20e+01,
92,4.80e+01,
93,5.80e+01,
94,5.40e+01,
95,6.00e+01,
96,5.60e+01,
97,6.20e+01,
98,5.80e+01,
99,6.40e+01,
100,5.80e+01,
101,6.60e+01,
102,6.60e+01,
103,6.20e+01,
104,6.40e+01,
105,6.60e+01,
106,6.40e+01,
107,6.80e+01,
108,6.40e+01,
109,1.20e+02,
110,1.16e+02,
111,1.18e+02,
112,1.18e+02,
113,1.12e+02,
114,1.12e+02,
115,1.18e+02,
116,1.18e+02,
117,-2.60e+01,
118,-4.00e+00,
119,-8.00e+00,
120,-6.00e+00,
121,5.80e+01,
122,5.40e+01,
123,6.80e+01,
124,6.60e+01,
125,7.20e+01,
126,7.00e+01,
127,7.40e+01,
128,7.40e+01,
129,7.00e+01,
130,7.40e+01,
131,7.00e+01,
132,7.40e+01,
133,7.20e+01,
134,7.40e+01,
135,7.20e+01,
136,7.40e+01,
137,7.20e+01,
138,7.00e+01,
139,1.18e+02,
140,1.18e+02,
141,1.16e+02,
142,1.18e+02,
143,1.12e+02,
144,1.12e+02,
145,1.18e+02,
146,1.18e+02,
147,-2.60e+01,
148,-8.00e+00,
149,-2.00e+00,
150,-6.00e+00,
151,6.40e+01,
152,5.80e+01,
153,7.20e+01,
154,7.20e+01,
155,6.60e+01,
156,7.00e+01,
157,7.20e+01,
158,7.00e+01,
159,7.20e+01,
160,7.20e+01,
161,6.60e+01,
162,6.60e+01,
163,7.20e+01,
164,7.20e+01,
165,6.60e+01,
166,7.20e+01,
167,6.60e+01,
168,3.40e+01,
169,9.20e+01,
170,1.00e+02,
171,9.20e+01,
172,9.20e+01,
173,9.60e+01,
174,9.20e+01,
175,8.80e+01,
176,9.00e+01,
177,-4.20e+01,
178,4.00e+00,
179,0.00e+00,
180,0.00e+00,
181,6.40e+01,
182,5.80e+01,
183,6.80e+01,
184,6.80e+01,
185,6.40e+01,
186,6.80e+01,
187,5.60e+01,
188,5.60e+01,
189,6.00e+01,
190,5.80e+01,
191,5.40e+01,
192,5.80e+01,
193,5.40e+01,
194,5.60e+01,
195,5.00e+01,
196,5.40e+01,
197,5.00e+01,
198,4.80e+01,
199,8.60e+01,
200,6.60e+01,
201,7.20e+01,
202,6.80e+01,
203,6.40e+01,
204,6.60e+01,
205,6.20e+01,
206,6.40e+01,
207,-6.80e+01,
208,4.00e+00,
209,0.00e+00,
210,0.00e+00,
211,4.40e+01,
212,3.40e+01,
213,3.80e+01,
214,3.80e+01,
215,3.40e+01,
216,3.60e+01,
217,3.20e+01,
218,3.40e+01,
219,2.80e+01,
220,3.40e+01,
221,2.80e+01,
222,3.00e+01,
223,2.60e+01,
224,2.80e+01,
225,2.40e+01,
226,2.80e+01,
227,2.40e+01,
228,2.00e+01,
229,6.00e+01,
230,4.20e+01,
231,3.60e+01,
232,3.80e+01,
233,3.40e+01,
234,3.80e+01,
235,-1.26e+02,
236,-1.26e+02,
237,7.80e+01,
238,3.80e+01,
239,1.60e+01,
240,2.00e+01,
241,1.00e+01,
242,1.20e+01,
243,6.00e+00,
244,1.00e+01,
245,4.00e+00,
246,6.00e+00,
247,2.00e+00,
248,6.00e+00,
249,0.00e+00,
250,4.00e+00,
251,-4.00e+00,
252,-4.00e+00,
253,2.00e+00,
254,-2.00e+00,
255,-6.00e+00,
256,-4.00e+00,
257,-8.00e+00,
258,-4.00e+00,
259,-4.40e+01,
260,-2.60e+01,
261,-3.40e+01,
262,-2.80e+01,
263,-3.60e+01,
264,-3.20e+01,
265,-3.80e+01,
266,-3.80e+01,
267,7.60e+01,
268,2.00e+01,
269,1.60e+01,
270,1.80e+01,
271,-2.00e+01,
272,-1.60e+01,
273,-2.60e+01,
274,-2.00e+01,
275,-2.80e+01,
276,-2.40e+01,
277,-3.00e+01,
278,-2.60e+01,
279,-3.00e+01,
280,-2.80e+01,
281,-3.40e+01,
282,-3.00e+01,
283,-3.60e+01,
284,-3.20e+01,
285,-3.80e+01,
286,-3.40e+01,
287,-4.20e+01,
288,-3.40e+01,
289,-7.40e+01,
290,-5.80e+01,
291,-6.60e+01,
292,-6.20e+01,
293,-6.80e+01,
294,-6.80e+01,
295,-6.40e+01,
296,-7.20e+01,
297,4.60e+01,
298,4.00e+00,
299,-3.20e+01,
300,-3.80e+01,
301,-5.40e+01,
302,-4.40e+01,
303,-5.20e+01,
304,-4.80e+01,
305,-5.40e+01,
306,-5.00e+01,
307,-5.80e+01,
308,-5.80e+01,
309,-5.40e+01,
310,-5.00e+01,
311,-7.80e+01,
312,-5.20e+01,
313,-6.20e+01,
314,-5.60e+01,
315,-6.40e+01,
316,-5.60e+01,
317,-6.40e+01,
318,-5.60e+01,
319,-1.18e+02,
320,-1.18e+02,
321,-1.10e+02,
322,-1.10e+02,
323,-1.18e+02,
324,-1.10e+02,
325,-1.18e+02,
326,-1.16e+02,
327,2.00e+01,
328,8.00e+00,
329,1.20e+01,
330,1.00e+01,
331,-5.20e+01,
332,-5.00e+01,
333,-5.80e+01,
334,-5.20e+01,
335,-6.80e+01,
336,-6.40e+01,
337,-7.00e+01,
338,-6.40e+01,
339,-7.20e+01,
340,-6.60e+01,
341,-7.00e+01,
342,-6.80e+01,
343,-6.60e+01,
344,-6.60e+01,
345,-7.00e+01,
346,-6.60e+01,
347,-7.40e+01,
348,-6.60e+01,
349,-1.18e+02,
350,-1.12e+02,
351,-1.18e+02,
352,-1.18e+02,
353,-1.10e+02,
354,-1.18e+02,
355,-1.10e+02,
356,-1.18e+02,
357,2.00e+01,
358,1.00e+01,
359,4.00e+00,
360,8.00e+00,
361,-6.60e+01,
362,-6.20e+01,
363,-7.20e+01,
364,-7.20e+01,
365,-6.60e+01,
366,-6.80e+01,
367,-6.60e+01,
368,-6.80e+01,
369,-6.60e+01,
370,-6.80e+01,
371,-6.60e+01,
372,-6.80e+01,
373,-6.60e+01,
374,-6.60e+01,
375,-7.20e+01,
376,-7.20e+01,
377,-6.60e+01,
378,-6.60e+01,
379,-1.18e+02,
380,-1.18e+02,
381,2.00e+01,
382,8.00e+00,
383,-9.60e+01,
384,-8.80e+01,
385,-9.60e+01,
386,-9.60e+01,
387,-4.00e+00,
388,-3.00e+01,
389,-2.40e+01,
390,-2.40e+01,
391,-6.00e+01,
392,-5.60e+01,
393,-6.40e+01,
394,-5.80e+01,
395,-6.40e+01,
396,-6.40e+01,
397,-5.60e+01,
398,-5.60e+01,
399,-6.00e+01,
400,-6.00e+01,
401,-5.40e+01,
402,-5.20e+01,
403,-5.80e+01,
404,-5.80e+01,
405,-5.00e+01,
406,-5.00e+01,
407,-6.00e+01,
408,-6.60e+01,
409,-8.40e+01,
410,-7.40e+01,
411,-6.60e+01,
412,-7.20e+01,
413,-6.40e+01,
414,-6.80e+01,
415,-6.40e+01,
416,-6.80e+01,
417,1.00e+01,
418,-2.00e+00,
419,-3.80e+01,
420,-3.20e+01,
421,-4.20e+01,
422,-4.20e+01,
423,-3.60e+01,
424,-4.00e+01,
425,-3.40e+01,
426,-3.40e+01,
427,-3.80e+01,
428,-3.80e+01,
429,-3.20e+01,
430,-3.60e+01,
431,-2.80e+01,
432,-2.80e+01,
433,-3.40e+01,
434,-3.00e+01,
435,-2.60e+01,
436,-2.40e+01,
437,-5.00e+01,
438,-5.20e+01,
439,-4.00e+01,
440,-4.40e+01,
441,-3.60e+01,
442,-3.60e+01,
443,-4.20e+01,
444,-3.80e+01,
445,-3.40e+01,
446,-3.80e+01,
447,1.20e+01,
448,8.00e+00,
449,1.00e+01,
450,2.00e+01,
451,-1.60e+01,
452,-2.00e+01,
453,1.20e+01,
454,-6.00e+00,
455,-2.00e+00,
456,-6.00e+00,
457,-2.00e+00,
458,-6.00e+00,
459,-2.00e+00,
460,-6.00e+00,
461,-2.00e+00,
462,-6.00e+00,
463,0.00e+00,
464,0.00e+00,
465,4.00e+00,
466,0.00e+00,
467,3.00e+01,
468,2.80e+01,
469,2.40e+01,
470,2.60e+01,
471,3.00e+01,
472,3.00e+01,
473,2.60e+01,
474,3.40e+01,
475,-8.00e+00,
476,-2.00e+00,
477,-8.00e+00,
478,-4.00e+00,
479,-8.00e+00,
480,-6.00e+00,
481,-2.00e+00,
482,-4.00e+00,
483,2.00e+01,
484,1.80e+01,
485,2.20e+01,
486,2.00e+01,
487,2.60e+01,
488,2.40e+01,
489,2.80e+01,
490,2.60e+01,
491,3.00e+01,
492,2.60e+01,
493,3.40e+01,
494,3.40e+01,
495,3.00e+01,
496,3.20e+01,
497,6.00e+01,
498,5.40e+01,
499,5.80e+01,
500,5.60e+01,
501,6.00e+01,
502,5.80e+01,
503,6.40e+01,
504,6.60e+01,
505,-6.00e+00,
506,-4.00e+00,
507,6.00e+00,
508,2.00e+00,
509,4.20e+01,
510,3.80e+01,
511,4.80e+01,
512,4.60e+01,
513,5.20e+01,
514,4.80e+01,
515,5.20e+01,
516,5.00e+01,
517,5.60e+01,
518,5.00e+01,
519,5.80e+01,
520,5.80e+01,
521,5.40e+01,
522,5.60e+01,
523,6.00e+01,
524,6.00e+01,
525,5.60e+01,
526,5.80e+01,
527,1.16e+02,
528,1.20e+02,
529,1.16e+02,
530,1.18e+02,
531,1.12e+02,
532,1.14e+02,
533,1.18e+02,
534,1.18e+02,
535,8.40e+01,
536,-4.00e+00,
537,-2.40e+01,
538,-8.00e+00,
539,-2.00e+00,
540,-6.00e+00,
541,6.00e+01,
542,5.80e+01,
543,6.80e+01,
544,6.40e+01,
545,7.20e+01,
546,7.20e+01,
547,6.60e+01,
548,7.00e+01,
549,7.20e+01,
550,7.00e+01,
551,7.40e+01,
552,7.40e+01,
553,7.00e+01,
554,7.00e+01,
555,7.40e+01,
556,7.00e+01,
557,1.18e+02,
558,1.16e+02,
559,1.18e+02,
560,1.18e+02,
561,1.14e+02,
562,1.18e+02,
563,1.12e+02,
564,1.18e+02,
565,-2.40e+01,
566,-8.00e+00,
567,-4.00e+00,
568,-6.00e+00,
569,6.00e+01,
570,5.80e+01,
571,7.20e+01,
572,7.00e+01,
573,7.40e+01,
574,7.40e+01,
575,7.00e+01,
576,7.20e+01,
577,7.40e+01,
578,7.20e+01,
579,7.40e+01,
580,7.20e+01,
581,7.40e+01,
582,7.20e+01,
583,7.40e+01,
584,7.40e+01,
585,7.00e+01,
586,7.00e+01,
587,1.18e+02,
588,1.16e+02,
589,1.18e+02,
590,1.18e+02,
591,1.12e+02,
592,1.12e+02,
593,1.18e+02,
594,1.18e+02,
595,-2.40e+01,
596,-4.00e+00,
597,-1.52e+02,
598,-1.20e+02,
599,6.20e+01,
600,5.00e+01,
601,6.60e+01,
602,6.60e+01,
603,6.20e+01,
604,6.40e+01,
605,6.60e+01,
606,6.60e+01,
607,6.40e+01,
608,6.60e+01,
609,6.20e+01,
610,6.60e+01,
611,6.20e+01,
612,6.40e+01,
613,5.80e+01,
614,6.40e+01,
615,5.80e+01,
616,5.80e+01,
617,1.00e+02,
618,8.40e+01,
619,7.80e+01,
620,7.80e+01,
621,8.20e+01,
622,8.00e+01,
623,7.40e+01,
624,7.60e+01,
625,-5.80e+01,
626,4.00e+00,
627,0.00e+00,
628,0.00e+00,
629,5.80e+01,
630,6.00e+01,
631,4.80e+01,
632,5.00e+01,
633,4.60e+01,
634,5.00e+01,
635,4.60e+01,
636,4.20e+01,
637,4.80e+01,
638,4.40e+01,
639,4.00e+01,
640,4.40e+01,
641,4.00e+01,
642,4.20e+01,
643,3.80e+01,
644,4.20e+01,
645,3.40e+01,
646,3.40e+01,
647,7.00e+01,
648,5.60e+01,
649,5.00e+01,
650,5.20e+01,
651,4.80e+01,
652,5.00e+01,
653,4.60e+01,
654,4.80e+01,
655,-7.60e+01,
656,-8.00e+00,
657,-1.20e+01,
658,-1.20e+01,
659,2.00e+01,
660,1.80e+01,
661,2.20e+01,
662,2.20e+01,
663,1.60e+01,
664,2.00e+01,
665,1.60e+01,
666,1.80e+01,
667,1.20e+01,
668,1.80e+01,
669,1.00e+01,
670,1.00e+01,
671,1.40e+01,
672,1.20e+01,
673,8.00e+00,
674,1.00e+01,
675,4.00e+00,
676,1.00e+01,
677,-2.80e+01,
678,-1.60e+01,
679,-2.20e+01,
680,-2.20e+01,
681,-1.80e+01,
682,-2.00e+01,
683,-2.60e+01,
684,-2.80e+01,
685,8.60e+01,
686,3.00e+01,
687,2.60e+01,
688,2.80e+01,
689,0.00e+00,
690,2.00e+00,
691,-1.20e+01,
692,-8.00e+00,
693,-1.40e+01,
694,-1.00e+01,
695,-1.60e+01,
696,-1.20e+01,
697,-2.00e+01,
698,-1.60e+01,
699,-2.00e+01,
700,-1.80e+01,
701,-2.20e+01,
702,-1.80e+01,
703,-2.60e+01,
704,-2.00e+01,
705,-2.80e+01,
706,-2.40e+01,
707,-6.00e+01,
708,-4.40e+01,
709,-5.20e+01,
710,-5.20e+01,
711,-4.80e+01,
712,-4.80e+01,
713,-5.40e+01,
714,-5.80e+01,
715,5.80e+01,
716,2.00e+00,
717,6.00e+00,
718,4.00e+00,
719,-3.60e+01,
720,-3.40e+01,
721,-4.20e+01,
722,-3.60e+01,
723,-4.40e+01,
724,-4.00e+01,
725,-4.60e+01,
726,-4.60e+01,
727,-4.20e+01,
728,-4.20e+01,
729,-5.00e+01,
730,-4.40e+01,
731,-5.20e+01,
732,-5.20e+01,
733,-4.80e+01,
734,-4.80e+01,
735,-5.40e+01,
736,-5.00e+01,
737,-9.00e+01,
738,-7.40e+01,
739,-8.20e+01,
740,-1.00e+01,
741,-1.16e+02,
742,-1.18e+02,
743,-1.10e+02,
744,-1.18e+02,
745,1.80e+01,
746,1.00e+01,
747,-5.20e+01,
748,-4.80e+01,
749,-6.00e+01,
750,-6.00e+01,
751,-5.60e+01,
752,-5.60e+01,
753,-6.20e+01,
754,-5.60e+01,
755,-6.40e+01,
756,-6.20e+01,
757,-6.40e+01,
758,-5.80e+01,
759,-6.80e+01,
760,-6.40e+01,
761,-6.60e+01,
762,-6.40e+01,
763,-7.20e+01,
764,-6.60e+01,
765,-7.20e+01,
766,-6.40e+01,
767,-1.18e+02,
768,-1.18e+02,
769,-1.12e+02,
770,-1.18e+02,
771,-1.10e+02,
772,-1.10e+02,
773,-1.18e+02,
774,-1.18e+02,
775,2.00e+01,
776,1.00e+01,
777,6.00e+00,
778,8.00e+00,
779,-6.60e+01,
780,-6.20e+01,
781,-7.20e+01,
782,-6.60e+01,
783,-7.40e+01,
784,-7.40e+01,
785,-7.00e+01,
786,-7.40e+01,
787,-7.00e+01,
788,-7.00e+01,
789,-7.20e+01,
790,-7.00e+01,
791,-7.20e+01,
792,-7.00e+01,
793,-7.20e+01,
794,-7.00e+01,
795,-7.20e+01,
796,-6.60e+01,
797,-1.18e+02,
798,-1.12e+02,
799,-1.18e+02,
800,-1.18e+02,
801,-1.10e+02,
802,-1.10e+02,
803,-1.18e+02,
804,-1.18e+02,
805,2.00e+01,
806,1.00e+01,
807,4.00e+00,
808,1.00e+01,
809,-6.20e+01,
810,-5.80e+01,
811,-6.80e+01,
812,-6.80e+01,
813,-6.40e+01,
814,-6.40e+01,
815,-6.80e+01,
816,-6.80e+01,
817,-6.40e+01,
818,-6.80e+01,
819,-6.20e+01,
820,-6.20e+01,
821,-6.40e+01,
822,-6.20e+01,
823,-6.60e+01,
824,-6.60e+01,
825,-5.80e+01,
826,-5.80e+01,
827,-9.80e+01,
828,-8.80e+01,
829,-8.00e+01,
830,-8.40e+01,
831,-7.80e+01,
832,-7.80e+01,
833,-8.40e+01,
834,-8.20e+01,
835,6.00e+00,
836,-1.80e+01,
837,-1.20e+01,
838,-1.20e+01,
839,-5.00e+01,
840,-4.60e+01,
841,-5.20e+01,
842,-5.20e+01,
843,-4.60e+01,
844,-5.00e+01,
845,-4.40e+01,
846,-5.00e+01,
847,-4.20e+01,
848,-4.20e+01,
849,-4.60e+01,
850,-4.60e+01,
851,-4.00e+01,
852,-4.00e+01,
853,-4.40e+01,
854,-4.20e+01,
855,-3.60e+01,
856,-3.60e+01,
857,-6.40e+01,
858,-5.80e+01,
859,-5.00e+01,
860,-5.40e+01,
861,-4.80e+01,
862,-4.80e+01,
863,-5.20e+01,
864,-5.00e+01,
865,1.00e+01,
866,1.00e+01,
867,-2.40e+01,
868,-1.80e+01,
869,-2.60e+01,
870,-2.20e+01,
871,-2.00e+01,
872,-2.00e+01,
873,-2.60e+01,
874,-2.20e+01,
875,-1.80e+01,
876,-2.20e+01,
877,-1.60e+01,
878,-1.60e+01,
879,-2.00e+01,
880,-1.80e+01,
881,-1.20e+01,
882,1.60e+01,
883,-2.40e+01,
884,8.00e+00,
885,-6.00e+00,
886,-6.00e+00,
887,1.80e+01,
888,1.80e+01,
889,1.20e+01,
890,1.60e+01,
891,2.00e+01,
892,1.60e+01,
893,2.20e+01,
894,2.20e+01,
895,-1.00e+01,
896,-4.00e+00,
897,-1.00e+01,
898,-8.00e+00,
899,-4.00e+00,
900,-8.00e+00,
901,-4.00e+00,
902,-8.00e+00,
903,-4.00e+00,
904,-6.00e+00,
905,-4.00e+00,
906,-6.00e+00,
907,1.20e+01,
908,8.00e+00,
909,1.40e+01,
910,1.20e+01,
911,1.80e+01,
912,1.60e+01,
913,2.00e+01,
914,1.80e+01,
915,4.00e+01,
916,4.60e+01,
917,4.00e+01,
918,4.20e+01,
919,4.80e+01,
920,4.40e+01,
921,5.00e+01,
922,4.60e+01,
923,5.20e+01,
924,5.20e+01,
925,-8.00e+00,
926,-6.00e+00,
927,2.20e+01,
928,2.20e+01,
929,3.40e+01,
930,3.20e+01,
931,3.80e+01,
932,3.40e+01,
933,4.20e+01,
934,3.80e+01,
935,4.40e+01,
936,4.40e+01,
937,4.00e+01,
938,4.20e+01,
939,4.80e+01,
940,4.20e+01,
941,5.00e+01,
942,5.00e+01,
943,4.60e+01,
944,4.80e+01,
945,8.20e+01,
946,7.60e+01,
947,7.20e+01,
948,7.40e+01,
949,8.00e+01,
950,7.40e+01,
951,8.20e+01,
952,8.20e+01,
953,7.20e+01,
954,6.60e+01,
955,-6.00e+00,
956,1.60e+01,
957,5.00e+01,
958,4.80e+01,
959,6.00e+01,
960,5.60e+01,
961,6.40e+01,
962,5.80e+01,
963,6.60e+01,
964,6.20e+01,
965,6.60e+01,
966,6.60e+01,
967,6.20e+01,
968,6.40e+01,
969,6.80e+01,
970,6.80e+01,
971,6.40e+01,
972,6.60e+01,
973,7.20e+01,
974,7.00e+01,
975,1.20e+02,
976,1.16e+02,
977,1.18e+02,
978,1.18e+02,
979,1.12e+02,
980,1.18e+02,
981,1.12e+02,
982,1.18e+02,
983,-2.40e+01,
984,-8.00e+00,
985,-4.00e+00,
986,-6.00e+00,
987,5.80e+01,
988,5.40e+01,
989,7.00e+01,
990,6.60e+01,
991,7.40e+01,
992,7.40e+01,
993,7.00e+01,
994,7.40e+01,
995,7.20e+01,
996,7.40e+01,
997,7.20e+01,
998,7.20e+01,
999,7.60e+01,
1000,7.20e+01,
1001,7.60e+01,
1002,7.60e+01,
1003,7.20e+01,
1004,7.20e+01,
1005,1.18e+02,
1006,1.16e+02,
1007,1.18e+02,
1008,1.18e+02,
1009,1.12e+02,
1010,1.12e+02,
1011,1.18e+02,
1012,1.18e+02,
1013,-2.20e+01,
1014,-4.00e+00,
1015,-8.00e+00,
1016,-6.00e+00,
1017,5.20e+01,
1018,5.00e+01,
1019,7.20e+01,
1020,7.20e+01,
1021,6.60e+01,
1022,7.00e+01,
1023,7.20e+01,
1024,7.20e+01,
1025,7.00e+01,
1026,7.20e+01,
1027,7.00e+01,
1028,3.80e+01,
1029,8.20e+01,
1030,7.60e+01,
1031,5.80e+01,
1032,7.00e+01,
1033,7.20e+01,
1034,6.60e+01,
1035,1.14e+02,
1036,9.60e+01,
1037,9.20e+01,
1038,9.20e+01,
1039,8.80e+01,
1040,9.00e+01,
1041,8.60e+01,
1042,9.00e+01,
1043,-4.20e+01,
1044,4.00e+00,
1045,0.00e+00,
1046,0.00e+00,
1047,6.00e+01,
1048,5.80e+01,
1049,6.80e+01,
1050,6.80e+01,
1051,6.40e+01,
1052,6.80e+01,
1053,5.60e+01,
1054,5.80e+01,
1055,5.40e+01,
1056,5.80e+01,
1057,5.40e+01,
1058,5.60e+01,
1059,5.00e+01,
1060,5.60e+01,
1061,5.00e+01,
1062,5.20e+01,
1063,4.80e+01,
1064,4.60e+01,
1065,8.40e+01,
1066,6.80e+01,
1067,6.40e+01,
1068,6.60e+01,
1069,6.20e+01,
1070,6.40e+01,
1071,5.80e+01,
1072,6.00e+01,
1073,-7.00e+01,
1074,2.00e+00,
1075,4.00e+00,
1076,0.00e+00,
1077,3.60e+01,
1078,3.20e+01,
1079,3.60e+01,
1080,3.60e+01,
1081,3.20e+01,
1082,3.40e+01,
1083,2.80e+01,
1084,3.00e+01,
1085,2.60e+01,
1086,3.00e+01,
1087,2.60e+01,
1088,2.80e+01,
1089,2.40e+01,
1090,2.60e+01,
1091,2.00e+01,
1092,2.60e+01,
1093,1.80e+01,
1094,1.80e+01,
1095,5.60e+01,
1096,3.80e+01,
1097,3.40e+01,
1098,3.60e+01,
1099,3.20e+01,
1100,3.40e+01,
1101,-1.26e+02,
1102,-1.22e+02,
1103,8.80e+01,
1104,3.20e+01,
1105,3.60e+01,
1106,3.60e+01,
1107,8.00e+00,
1108,1.00e+01,
1109,2.00e+00,
1110,2.00e+00,
1111,6.00e+00,
1112,4.00e+00,
1113,0.00e+00,
1114,2.00e+00,
1115,-4.00e+00,
1116,2.00e+00,
1117,-6.00e+00,
1118,-2.00e+00,
1119,-8.00e+00,
1120,-4.00e+00,
1121,-1.00e+01,
1122,-8.00e+00,
1123,-1.20e+01,
1124,-8.00e+00,
1125,-4.60e+01,
1126,-2.80e+01,
1127,-3.60e+01,
1128,-3.20e+01,
1129,-3.80e+01,
1130,-3.40e+01,
1131,-4.20e+01,
1132,-4.20e+01,
1133,7.40e+01,
1134,2.00e+01,
1135,1.20e+01,
1136,1.40e+01,
1137,-2.20e+01,
1138,-1.80e+01,
1139,-2.80e+01,
1140,-2.40e+01,
1141,-3.00e+01,
1142,-2.60e+01,
1143,-3.40e+01,
1144,-3.40e+01,
1145,-2.80e+01,
1146,-3.00e+01,
1147,-3.60e+01,
1148,-3.20e+01,
1149,-3.80e+01,
1150,-3.40e+01,
1151,-4.20e+01,
1152,-4.20e+01,
1153,-3.60e+01,
1154,-3.60e+01,
1155,-7.60e+01,
1156,-6.20e+01,
1157,-6.80e+01,
1158,-6.40e+01,
1159,-7.00e+01,
1160,-6.60e+01,
1161,-7.40e+01,
1162,-7.40e+01,
1163,3.40e+01,
1164,0.00e+00,
1165,4.00e+00,
1166,4.00e+00,
1167,-6.00e+01,
1168,-6.00e+01,
1169,-5.00e+01,
1170,-5.00e+01,
1171,-5.80e+01,
1172,-5.80e+01,
1173,-5.20e+01,
1174,-5.40e+01,
1175,-7.80e+01,
1176,-5.00e+01,
1177,-6.20e+01,
1178,-5.60e+01,
1179,-6.40e+01,
1180,-5.80e+01,
1181,-6.60e+01,
1182,-5.80e+01,
1183,-6.60e+01,
1184,-6.20e+01,
1185,-1.18e+02,
1186,-1.12e+02,
1187,-1.18e+02,
1188,-1.18e+02,
1189,-1.10e+02,
1190,-1.10e+02,
1191,-1.18e+02,
1192,-1.18e+02,
1193,2.20e+01,
1194,1.00e+01,
1195,8.00e+00,
1196,1.00e+01,
1197,-5.20e+01,
1198,-4.80e+01,
1199,-5.80e+01,
