Ausarbeitung/Messungen/Rechteck_nach_Spannungsteiler_Schmitttrigger.csv

X,CH1,Start,Increment,
Sequence,Volt,-2.740000e-03,5.000000e-06
0,2.40e-01,
1,1.20e-01,
2,2.40e-01,
3,4.00e-02,
4,4.00e-02,
5,3.20e-01,
6,1.20e-01,
7,2.40e-01,
8,1.20e-01,
9,2.40e-01,
10,1.20e-01,
11,2.40e-01,
12,2.40e-01,
13,8.00e-02,
14,8.00e-02,
15,2.80e-01,
16,1.20e-01,
17,2.40e-01,
18,1.20e-01,
19,2.00e-01,
20,1.60e-01,
21,8.00e-02,
22,1.60e-01,
23,8.00e-02,
24,1.60e-01,
25,8.00e-02,
26,-2.40e-01,
27,4.00e-01,
28,1.60e-01,
29,9.20e-01,
30,9.20e-01,
31,1.96e+00,
32,1.92e+00,
33,2.92e+00,
34,2.92e+00,
35,3.76e+00,
36,3.68e+00,
37,3.80e+00,
38,3.84e+00,
39,3.72e+00,
40,3.84e+00,
41,3.72e+00,
42,3.72e+00,
43,3.84e+00,
44,3.72e+00,
45,3.84e+00,
46,3.72e+00,
47,3.80e+00,
48,3.72e+00,
49,3.80e+00,
50,3.72e+00,
51,3.84e+00,
52,3.72e+00,
53,3.84e+00,
54,3.72e+00,
55,3.84e+00,
56,3.72e+00,
57,3.80e+00,
58,3.80e+00,
59,3.72e+00,
60,3.72e+00,
61,3.80e+00,
62,3.84e+00,
63,3.72e+00,
64,3.72e+00,
65,3.84e+00,
66,3.72e+00,
67,3.84e+00,
68,3.72e+00,
69,3.80e+00,
70,3.72e+00,
71,3.84e+00,
72,3.72e+00,
73,3.84e+00,
74,3.84e+00,
75,3.72e+00,
76,3.84e+00,
77,3.72e+00,
78,3.72e+00,
79,3.80e+00,
80,3.80e+00,
81,3.56e+00,
82,3.60e+00,
83,2.68e+00,
84,2.72e+00,
85,1.76e+00,
86,1.76e+00,
87,8.40e-01,
88,8.40e-01,
89,2.40e-01,
90,2.00e-01,
91,3.20e-01,
92,2.00e-01,
93,3.20e-01,
94,2.00e-01,
95,2.80e-01,
96,2.00e-01,
97,3.20e-01,
98,3.20e-01,
99,1.60e-01,
100,1.60e-01,
101,2.40e-01,
102,1.60e-01,
103,2.80e-01,
104,1.60e-01,
105,2.80e-01,
106,2.80e-01,
107,1.60e-01,
108,2.80e-01,
109,1.60e-01,
110,3.20e-01,
111,4.00e-02,
112,1.60e-01,
113,2.80e-01,
114,2.40e-01,
115,1.60e-01,
116,2.00e-01,
117,1.20e-01,
118,1.20e-01,
119,2.40e-01,
120,2.40e-01,
121,1.20e-01,
122,1.20e-01,
123,2.40e-01,
124,2.40e-01,
125,1.20e-01,
126,1.20e-01,
127,2.40e-01,
128,1.20e-01,
129,2.40e-01,
130,1.20e-01,
131,2.00e-01,
132,2.40e-01,
133,-8.00e-02,
134,-4.00e-02,
135,3.20e-01,
136,1.60e-01,
137,8.00e-02,
138,1.60e-01,
139,8.00e-02,
140,8.00e-02,
141,2.00e-01,
142,8.00e-02,
143,2.00e-01,
144,8.00e-02,
145,5.60e-01,
146,5.60e-01,
147,1.60e+00,
148,1.56e+00,
149,2.64e+00,
150,2.56e+00,
151,3.56e+00,
152,3.56e+00,
153,3.80e+00,
154,3.80e+00,
155,3.72e+00,
156,3.72e+00,
157,3.84e+00,
158,3.84e+00,
159,3.72e+00,
160,3.84e+00,
161,3.72e+00,
162,3.72e+00,
163,3.84e+00,
164,3.72e+00,
165,3.80e+00,
166,3.72e+00,
167,3.80e+00,
168,3.72e+00,
169,3.84e+00,
170,3.72e+00,
171,3.84e+00,
172,3.72e+00,
173,3.84e+00,
174,3.72e+00,
175,3.80e+00,
176,3.72e+00,
177,3.80e+00,
178,3.72e+00,
179,3.80e+00,
180,3.72e+00,
181,3.84e+00,
182,3.72e+00,
183,3.84e+00,
184,3.72e+00,
185,3.84e+00,
186,3.72e+00,
187,3.84e+00,
188,3.80e+00,
189,3.72e+00,
190,3.80e+00,
191,3.72e+00,
192,3.72e+00,
193,3.84e+00,
194,3.72e+00,
195,3.84e+00,
196,3.84e+00,
197,3.72e+00,
198,3.76e+00,
199,2.96e+00,
200,3.04e+00,
201,2.08e+00,
202,2.12e+00,
203,1.16e+00,
204,1.20e+00,
205,2.80e-01,
206,3.20e-01,
207,2.00e-01,
208,2.00e-01,
209,3.20e-01,
210,2.00e-01,
211,3.20e-01,
212,2.00e-01,
213,2.40e-01,
214,2.40e-01,
215,1.60e-01,
216,3.20e-01,
217,1.20e-01,
218,2.40e-01,
219,1.60e-01,
220,2.40e-01,
221,1.60e-01,
222,1.60e-01,
223,2.40e-01,
224,1.60e-01,
225,2.80e-01,
226,3.20e-01,
227,8.00e-02,
228,2.80e-01,
229,4.00e-02,
230,1.60e-01,
231,2.80e-01,
232,1.60e-01,
233,2.00e-01,
234,2.40e-01,
235,1.20e-01,
236,2.00e-01,
237,1.20e-01,
238,1.20e-01,
239,2.80e-01,
240,2.40e-01,
241,1.20e-01,
242,1.20e-01,
243,2.40e-01,
244,1.20e-01,
245,2.40e-01,
246,1.20e-01,
247,2.40e-01,
248,2.40e-01,
249,1.20e-01,
250,1.20e-01,
251,2.40e-01,
252,-1.60e-01,
253,3.20e-01,
254,1.20e-01,
255,1.60e-01,
256,1.60e-01,
257,8.00e-02,
258,1.60e-01,
259,8.00e-02,
260,8.00e-02,
261,2.80e-01,
262,2.80e-01,
263,1.32e+00,
264,1.24e+00,
265,2.28e+00,
266,2.20e+00,
267,3.28e+00,
268,3.24e+00,
269,3.80e+00,
270,3.80e+00,
271,3.72e+00,
272,3.80e+00,
273,3.72e+00,
274,3.72e+00,
275,3.84e+00,
276,3.72e+00,
277,3.84e+00,
278,3.84e+00,
279,3.72e+00,
280,3.72e+00,
281,3.84e+00,
282,3.72e+00,
283,3.80e+00,
284,3.72e+00,
285,3.84e+00,
286,3.72e+00,
287,3.84e+00,
288,3.84e+00,
289,3.72e+00,
290,3.84e+00,
291,3.72e+00,
292,3.72e+00,
293,3.84e+00,
294,3.72e+00,
295,3.84e+00,
296,3.72e+00,
297,3.80e+00,
298,3.72e+00,
299,3.84e+00,
300,3.84e+00,
301,3.72e+00,
302,3.72e+00,
303,3.84e+00,
304,3.72e+00,
305,3.84e+00,
306,3.72e+00,
307,3.80e+00,
308,3.80e+00,
309,3.72e+00,
310,3.72e+00,
311,3.84e+00,
312,3.80e+00,
313,3.68e+00,
314,3.72e+00,
315,2.80e+00,
316,2.88e+00,
317,1.92e+00,
318,1.92e+00,
319,1.00e+00,
320,1.04e+00,
321,2.40e-01,
322,2.00e-01,
323,3.20e-01,
324,3.20e-01,
325,2.00e-01,
326,2.00e-01,
327,2.80e-01,
328,2.00e-01,
329,2.80e-01,
330,2.40e-01,
331,1.60e-01,
332,2.40e-01,
333,1.60e-01,
334,3.20e-01,
335,1.20e-01,
336,1.60e-01,
337,2.80e-01,
338,2.80e-01,
339,1.60e-01,
340,2.80e-01,
341,1.60e-01,
342,3.20e-01,
343,1.20e-01,
344,1.60e-01,
345,2.00e-01,
346,3.20e-01,
347,-8.00e-02,
348,2.40e-01,
349,1.20e-01,
350,2.00e-01,
351,1.20e-01,
352,1.20e-01,
353,2.40e-01,
354,2.40e-01,
355,1.20e-01,
356,1.20e-01,
357,2.40e-01,
358,1.20e-01,
359,2.40e-01,
360,1.20e-01,
361,2.40e-01,
362,1.20e-01,
363,2.40e-01,
364,1.20e-01,
365,1.60e-01,
366,1.20e-01,
367,1.60e-01,
368,8.00e-02,
369,2.40e-01,
370,-2.00e-01,
371,2.80e-01,
372,1.60e-01,
373,8.00e-02,
374,8.00e-02,
375,2.00e-01,
376,8.00e-02,
377,7.20e-01,
378,6.40e-01,
379,1.72e+00,
380,1.68e+00,
381,2.76e+00,
382,2.68e+00,
383,3.72e+00,
384,3.68e+00,
385,3.80e+00,
386,3.72e+00,
387,3.80e+00,
388,3.72e+00,
389,3.80e+00,
390,3.72e+00,
391,3.80e+00,
392,3.72e+00,
393,3.84e+00,
394,3.84e+00,
395,3.72e+00,
396,3.84e+00,
397,3.72e+00,
398,3.72e+00,
399,3.84e+00,
400,3.72e+00,
401,3.84e+00,
402,3.80e+00,
403,3.72e+00,
404,3.72e+00,
405,3.84e+00,
406,3.84e+00,
407,3.72e+00,
408,3.84e+00,
409,3.72e+00,
410,3.72e+00,
411,3.84e+00,
412,3.72e+00,
413,3.80e+00,
414,3.72e+00,
415,3.80e+00,
416,3.72e+00,
417,3.84e+00,
418,3.72e+00,
419,3.84e+00,
420,3.72e+00,
421,3.84e+00,
422,3.80e+00,
423,3.72e+00,
424,3.80e+00,
425,3.72e+00,
426,3.80e+00,
427,3.72e+00,
428,3.80e+00,
429,3.52e+00,
430,3.56e+00,
431,2.60e+00,
432,2.64e+00,
433,1.72e+00,
434,1.76e+00,
435,8.00e-01,
436,8.40e-01,
437,2.00e-01,
438,2.00e-01,
439,3.20e-01,
440,2.00e-01,
441,3.20e-01,
442,3.20e-01,
443,2.00e-01,
444,2.40e-01,
445,1.60e-01,
446,1.60e-01,
447,2.80e-01,
448,1.60e-01,
449,2.40e-01,
450,1.60e-01,
451,2.80e-01,
452,3.20e-01,
453,8.00e-02,
454,1.60e-01,
455,2.80e-01,
456,2.80e-01,
457,1.60e-01,
458,1.60e-01,
459,3.20e-01,
460,8.00e-02,
461,2.80e-01,
462,2.80e-01,
463,1.20e-01,
464,2.80e-01,
465,-1.20e-01,
466,1.60e-01,
467,3.20e-01,
468,1.20e-01,
469,2.40e-01,
470,1.20e-01,
471,2.40e-01,
472,1.20e-01,
473,2.40e-01,
474,2.40e-01,
475,1.20e-01,
476,1.20e-01,
477,2.40e-01,
478,1.20e-01,
479,2.40e-01,
480,1.20e-01,
481,1.60e-01,
482,1.20e-01,
483,1.60e-01,
484,1.60e-01,
485,8.00e-02,
486,1.60e-01,
487,8.00e-02,
488,-2.40e-01,
489,3.20e-01,
490,2.40e-01,
491,8.00e-02,
492,8.00e-02,
493,7.60e-01,
494,7.20e-01,
495,1.76e+00,
496,1.72e+00,
497,2.76e+00,
498,2.72e+00,
499,3.72e+00,
500,3.64e+00,
501,3.80e+00,
502,3.72e+00,
503,3.84e+00,
504,3.72e+00,
505,3.84e+00,
506,3.72e+00,
507,3.80e+00,
508,3.72e+00,
509,3.80e+00,
510,3.72e+00,
511,3.80e+00,
512,3.72e+00,
513,3.84e+00,
514,3.72e+00,
515,3.84e+00,
516,3.84e+00,
517,3.72e+00,
518,3.72e+00,
519,3.84e+00,
520,3.80e+00,
521,3.72e+00,
522,3.72e+00,
523,3.84e+00,
524,3.84e+00,
525,3.72e+00,
526,3.84e+00,
527,3.72e+00,
528,3.72e+00,
529,3.84e+00,
530,3.72e+00,
531,3.80e+00,
532,3.72e+00,
533,3.80e+00,
534,3.72e+00,
535,3.84e+00,
536,3.72e+00,
537,3.84e+00,
538,3.72e+00,
539,3.84e+00,
540,3.72e+00,
541,3.80e+00,
542,3.80e+00,
543,3.72e+00,
544,3.80e+00,
545,3.68e+00,
546,3.76e+00,
547,2.96e+00,
548,3.00e+00,
549,2.04e+00,
550,2.12e+00,
551,1.12e+00,
552,1.16e+00,
553,2.80e-01,
554,3.60e-01,
555,2.00e-01,
556,2.00e-01,
557,3.20e-01,
558,2.00e-01,
559,3.20e-01,
560,3.20e-01,
561,2.00e-01,
562,2.40e-01,
563,1.60e-01,
564,2.40e-01,
565,1.60e-01,
566,1.60e-01,
567,2.80e-01,
568,1.60e-01,
569,2.80e-01,
570,1.60e-01,
571,3.20e-01,
572,8.00e-02,
573,2.80e-01,
574,1.60e-01,
575,2.80e-01,
576,1.60e-01,
577,2.80e-01,
578,1.60e-01,
579,2.80e-01,
580,2.00e-01,
581,1.20e-01,
582,2.80e-01,
583,4.00e-02,
584,0.00e+00,
585,3.20e-01,
586,1.20e-01,
587,2.40e-01,
588,1.20e-01,
589,2.40e-01,
590,2.40e-01,
591,1.20e-01,
592,2.40e-01,
593,1.20e-01,
594,-8.00e-02,
595,2.80e-01,
596,3.20e-01,
597,1.20e-01,
598,1.20e-01,
599,1.60e-01,
600,1.60e-01,
601,8.00e-02,
602,8.00e-02,
603,1.60e-01,
604,8.00e-02,
605,1.60e-01,
606,-2.40e-01,
607,3.20e-01,
608,3.20e-01,
609,8.00e-02,
610,2.00e-01,
611,1.28e+00,
612,1.20e+00,
613,2.24e+00,
614,2.20e+00,
615,3.24e+00,
616,3.20e+00,
617,3.80e+00,
618,3.72e+00,
619,3.84e+00,
620,3.84e+00,
621,3.72e+00,
622,3.72e+00,
623,3.80e+00,
624,3.72e+00,
625,3.84e+00,
626,3.72e+00,
627,3.84e+00,
628,3.72e+00,
629,3.84e+00,
630,3.72e+00,
631,3.84e+00,
632,3.72e+00,
633,3.84e+00,
634,3.84e+00,
635,3.72e+00,
636,3.72e+00,
637,3.80e+00,
638,3.80e+00,
639,3.72e+00,
640,3.80e+00,
641,3.72e+00,
642,3.72e+00,
643,3.84e+00,
644,3.72e+00,
645,3.84e+00,
646,3.72e+00,
647,3.84e+00,
648,3.72e+00,
649,3.80e+00,
650,3.72e+00,
651,3.80e+00,
652,3.72e+00,
653,3.84e+00,
654,3.84e+00,
655,3.72e+00,
656,3.72e+00,
657,3.84e+00,
658,3.72e+00,
659,3.80e+00,
660,3.72e+00,
661,3.80e+00,
662,3.80e+00,
663,3.20e+00,
664,3.24e+00,
665,2.28e+00,
666,2.36e+00,
667,1.36e+00,
668,1.40e+00,
669,4.40e-01,
670,5.20e-01,
671,2.00e-01,
672,2.00e-01,
673,3.20e-01,
674,3.20e-01,
675,2.00e-01,
676,2.00e-01,
677,3.20e-01,
678,3.20e-01,
679,1.60e-01,
680,2.40e-01,
681,1.60e-01,
682,2.40e-01,
683,1.60e-01,
684,1.60e-01,
685,2.80e-01,
686,1.60e-01,
687,2.80e-01,
688,1.60e-01,
689,2.80e-01,
690,2.80e-01,
691,8.00e-02,
692,2.80e-01,
693,1.60e-01,
694,2.80e-01,
695,1.60e-01,
696,1.60e-01,
697,2.00e-01,
698,2.00e-01,
699,1.20e-01,
700,2.00e-01,
701,1.20e-01,
702,8.00e-02,
703,3.20e-01,
704,1.20e-01,
705,2.40e-01,
706,2.40e-01,
707,1.20e-01,
708,2.40e-01,
709,1.20e-01,
710,1.20e-01,
711,2.40e-01,
712,8.00e-02,
713,2.80e-01,
714,1.20e-01,
715,2.40e-01,
716,1.20e-01,
717,1.60e-01,
718,1.20e-01,
719,1.60e-01,
720,1.60e-01,
721,8.00e-02,
722,1.60e-01,
723,8.00e-02,
724,1.60e-01,
725,-4.00e-02,
726,1.60e-01,
727,1.04e+00,
728,9.60e-01,
729,2.00e+00,
730,1.96e+00,
731,3.00e+00,
732,2.92e+00,
733,3.76e+00,
734,3.68e+00,
735,3.80e+00,
736,3.72e+00,
737,3.84e+00,
738,3.84e+00,
739,3.72e+00,
740,3.84e+00,
741,3.72e+00,
742,3.72e+00,
743,3.76e+00,
744,3.72e+00,
745,3.84e+00,
746,3.72e+00,
747,3.84e+00,
748,3.72e+00,
749,3.84e+00,
750,3.72e+00,
751,3.84e+00,
752,3.72e+00,
753,3.84e+00,
754,3.84e+00,
755,3.72e+00,
756,3.72e+00,
757,3.80e+00,
758,3.72e+00,
759,3.80e+00,
760,3.72e+00,
761,3.84e+00,
762,3.72e+00,
763,3.84e+00,
764,3.72e+00,
765,3.84e+00,
766,3.72e+00,
767,3.84e+00,
768,3.72e+00,
769,3.84e+00,
770,3.72e+00,
771,3.80e+00,
772,3.72e+00,
773,3.84e+00,
774,3.72e+00,
775,3.84e+00,
776,3.72e+00,
777,3.84e+00,
778,3.80e+00,
779,3.40e+00,
780,3.44e+00,
781,2.52e+00,
782,2.52e+00,
783,1.60e+00,
784,1.60e+00,
785,6.80e-01,
786,6.80e-01,
787,2.00e-01,
788,2.00e-01,
789,3.20e-01,
790,3.20e-01,
791,2.00e-01,
792,2.00e-01,
793,3.20e-01,
794,1.60e-01,
795,3.20e-01,
796,1.60e-01,
797,3.20e-01,
798,2.40e-01,
799,1.60e-01,
800,2.40e-01,
801,1.60e-01,
802,1.60e-01,
803,2.80e-01,
804,1.60e-01,
805,2.80e-01,
806,3.20e-01,
807,1.20e-01,
808,2.80e-01,
809,0.00e+00,
810,1.60e-01,
811,2.80e-01,
812,2.80e-01,
813,1.60e-01,
814,2.00e-01,
815,1.20e-01,
816,1.20e-01,
817,2.40e-01,
818,1.20e-01,
819,2.40e-01,
820,0.00e+00,
821,3.20e-01,
822,1.20e-01,
823,2.40e-01,
824,1.20e-01,
825,2.40e-01,
826,2.40e-01,
827,1.20e-01,
828,1.20e-01,
829,2.40e-01,
830,1.20e-01,
831,2.40e-01,
832,-8.00e-02,
833,3.20e-01,
834,1.60e-01,
835,8.00e-02,
836,1.60e-01,
837,8.00e-02,
838,1.60e-01,
839,8.00e-02,
840,8.00e-02,
841,1.60e-01,
842,8.00e-02,
843,8.00e-01,
844,7.60e-01,
845,1.84e+00,
846,1.76e+00,
847,2.80e+00,
848,2.80e+00,
849,3.72e+00,
850,3.68e+00,
851,3.80e+00,
852,3.80e+00,
853,3.72e+00,
854,3.72e+00,
855,3.84e+00,
856,3.84e+00,
857,3.72e+00,
858,3.84e+00,
859,3.72e+00,
860,3.84e+00,
861,3.72e+00,
862,3.72e+00,
863,3.80e+00,
864,3.72e+00,
865,3.84e+00,
866,3.84e+00,
867,3.72e+00,
868,3.84e+00,
869,3.72e+00,
870,3.72e+00,
871,3.84e+00,
872,3.72e+00,
873,3.84e+00,
874,3.72e+00,
875,3.84e+00,
876,3.80e+00,
877,3.72e+00,
878,3.72e+00,
879,3.84e+00,
880,3.84e+00,
881,3.72e+00,
882,3.72e+00,
883,3.84e+00,
884,3.72e+00,
885,3.80e+00,
886,3.72e+00,
887,3.84e+00,
888,3.80e+00,
889,3.72e+00,
890,3.72e+00,
891,3.88e+00,
892,3.72e+00,
893,3.84e+00,
894,3.84e+00,
895,3.56e+00,
896,3.64e+00,
897,2.68e+00,
898,2.68e+00,
899,1.76e+00,
900,1.76e+00,
901,8.40e-01,
902,8.40e-01,
903,2.00e-01,
904,2.00e-01,
905,3.20e-01,
906,2.00e-01,
907,3.20e-01,
908,2.00e-01,
909,3.20e-01,
910,3.20e-01,
911,1.60e-01,
912,2.40e-01,
913,1.60e-01,
914,3.20e-01,
915,1.20e-01,
916,2.40e-01,
917,1.60e-01,
918,1.60e-01,
919,2.40e-01,
920,1.60e-01,
921,2.80e-01,
922,1.60e-01,
923,2.80e-01,
924,3.20e-01,
925,8.00e-02,
926,3.20e-01,
927,4.00e-02,
928,1.60e-01,
929,2.80e-01,
930,1.60e-01,
931,2.00e-01,
932,1.60e-01,
933,2.00e-01,
934,1.20e-01,
935,2.40e-01,
936,1.20e-01,
937,2.40e-01,
938,1.20e-01,
939,2.80e-01,
940,1.20e-01,
941,2.40e-01,
942,1.20e-01,
943,2.40e-01,
944,1.20e-01,
945,2.40e-01,
946,1.20e-01,
947,2.00e-01,
948,1.20e-01,
949,1.60e-01,
950,-1.60e-01,
951,3.20e-01,
952,1.60e-01,
953,8.00e-02,
954,1.60e-01,
955,8.00e-02,
956,8.00e-02,
957,1.60e-01,
958,8.00e-02,
959,7.60e-01,
960,7.20e-01,
961,1.76e+00,
962,1.72e+00,
963,2.76e+00,
964,2.68e+00,
965,3.72e+00,
966,3.64e+00,
967,3.80e+00,
968,3.80e+00,
969,3.72e+00,
970,3.72e+00,
971,3.80e+00,
972,3.72e+00,
973,3.84e+00,
974,3.72e+00,
975,3.84e+00,
976,3.84e+00,
977,3.72e+00,
978,3.84e+00,
979,3.72e+00,
980,3.72e+00,
981,3.84e+00,
982,3.72e+00,
983,3.84e+00,
984,3.72e+00,
985,3.84e+00,
986,3.72e+00,
987,3.84e+00,
988,3.84e+00,
989,3.72e+00,
990,3.72e+00,
991,3.84e+00,
992,3.72e+00,
993,3.84e+00,
994,3.72e+00,
995,3.84e+00,
996,3.84e+00,
997,3.72e+00,
998,3.72e+00,
999,3.84e+00,
1000,3.72e+00,
1001,3.84e+00,
1002,3.80e+00,
1003,3.72e+00,
1004,3.80e+00,
1005,3.72e+00,
1006,3.80e+00,
1007,3.72e+00,
1008,3.80e+00,
1009,3.72e+00,
1010,3.80e+00,
1011,3.28e+00,
1012,3.32e+00,
1013,2.40e+00,
1014,2.36e+00,
1015,1.48e+00,
1016,1.48e+00,
1017,5.60e-01,
1018,6.40e-01,
1019,2.00e-01,
1020,2.00e-01,
1021,3.20e-01,
1022,2.00e-01,
1023,3.20e-01,
1024,2.00e-01,
1025,3.20e-01,
1026,2.00e-01,
1027,2.40e-01,
1028,2.40e-01,
1029,1.60e-01,
1030,2.80e-01,
1031,1.60e-01,
1032,3.20e-01,
1033,8.00e-02,
1034,8.00e-02,
1035,2.80e-01,
1036,1.60e-01,
1037,2.80e-01,
1038,2.80e-01,
1039,1.60e-01,
1040,3.20e-01,
1041,1.20e-01,
1042,1.60e-01,
1043,2.80e-01,
1044,2.80e-01,
1045,-1.60e-01,
1046,-1.60e-01,
1047,3.20e-01,
1048,1.60e-01,
1049,2.00e-01,
1050,2.40e-01,
1051,1.20e-01,
1052,1.20e-01,
1053,2.40e-01,
1054,1.20e-01,
1055,2.40e-01,
1056,1.20e-01,
1057,2.80e-01,
1058,1.20e-01,
1059,2.40e-01,
1060,1.20e-01,
1061,2.40e-01,
1062,1.20e-01,
1063,1.60e-01,
1064,1.60e-01,
1065,8.00e-02,
1066,1.60e-01,
1067,8.00e-02,
1068,2.00e-01,
1069,-2.40e-01,
1070,3.20e-01,
1071,8.00e-02,
1072,8.00e-02,
1073,2.00e-01,
1074,1.60e-01,
1075,1.16e+00,
1076,1.08e+00,
1077,2.12e+00,
1078,2.08e+00,
1079,3.12e+00,
1080,3.08e+00,
1081,3.80e+00,
1082,3.80e+00,
1083,3.72e+00,
1084,3.80e+00,
1085,3.72e+00,
1086,3.72e+00,
1087,3.80e+00,
1088,3.72e+00,
1089,3.80e+00,
1090,3.72e+00,
1091,3.80e+00,
1092,3.72e+00,
1093,3.84e+00,
1094,3.72e+00,
1095,3.84e+00,
1096,3.84e+00,
1097,3.72e+00,
1098,3.72e+00,
1099,3.84e+00,
1100,3.72e+00,
1101,3.80e+00,
1102,3.72e+00,
1103,3.80e+00,
1104,3.72e+00,
1105,3.84e+00,
1106,3.84e+00,
1107,3.72e+00,
1108,3.84e+00,
1109,3.72e+00,
1110,3.72e+00,
1111,3.84e+00,
1112,3.72e+00,
1113,3.80e+00,
1114,3.72e+00,
1115,3.84e+00,
1116,3.84e+00,
1117,3.72e+00,
1118,3.72e+00,
1119,3.84e+00,
1120,3.72e+00,
1121,3.80e+00,
1122,3.80e+00,
1123,3.72e+00,
1124,3.72e+00,
1125,3.80e+00,
1126,3.80e+00,
1127,3.48e+00,
1128,3.56e+00,
1129,2.56e+00,
1130,2.60e+00,
1131,1.68e+00,
1132,1.68e+00,
1133,7.60e-01,
1134,7.60e-01,
1135,2.00e-01,
1136,2.00e-01,
1137,3.20e-01,
1138,2.00e-01,
1139,3.20e-01,
1140,3.20e-01,
1141,2.00e-01,
1142,2.00e-01,
1143,2.40e-01,
1144,2.40e-01,
1145,1.60e-01,
1146,2.40e-01,
1147,1.60e-01,
1148,1.60e-01,
1149,2.80e-01,
1150,1.60e-01,
1151,3.20e-01,
1152,2.80e-01,
1153,1.20e-01,
1154,2.80e-01,
1155,1.60e-01,
1156,1.60e-01,
1157,2.80e-01,
1158,1.60e-01,
1159,2.80e-01,
1160,2.80e-01,
1161,1.60e-01,
1162,2.80e-01,
1163,4.00e-02,
1164,-4.00e-02,
1165,3.20e-01,
1166,1.20e-01,
1167,2.40e-01,
1168,1.20e-01,
1169,2.40e-01,
1170,1.20e-01,
1171,2.40e-01,
1172,1.20e-01,
1173,2.40e-01,
1174,2.40e-01,
1175,1.20e-01,
1176,1.20e-01,
1177,2.40e-01,
1178,1.20e-01,
1179,2.40e-01,
1180,1.20e-01,
1181,1.60e-01,
1182,1.60e-01,
1183,8.00e-02,
1184,1.60e-01,
1185,8.00e-02,
1186,1.60e-01,
1187,-2.40e-01,
1188,-1.60e-01,
1189,3.20e-01,
1190,8.00e-02,
1191,9.20e-01,
1192,8.80e-01,
1193,1.92e+00,
1194,1.84e+00,
1195,2.88e+00,
1196,2.84e+00,
1197,3.76e+00,
1198,3.68e+00,
1199,3.84e+00,
